mc23_13p6TeV.601501.PhPy8EG_PDF4LHC21_WpH125J_Wincl_MINLO_HZZ_4l_notau.deriv.DAOD_PHYSLITE.e8558_s4159_r15530_p6266
mc23_13p6TeV.601501.PhPy8EG_PDF4LHC21_WpH125J_Wincl_MINLO_HZZ_4l_notau.deriv.DAOD_PHYSLITE.e8558_s4162_r15540_p6266


mc23_13p6TeV.601502.PhPy8EG_PDF4LHC21_WmH125J_Wincl_MINLO_HZZ_4l_notau.deriv.DAOD_PHYSLITE.e8558_s4159_r15530_p6266
mc23_13p6TeV.601502.PhPy8EG_PDF4LHC21_WmH125J_Wincl_MINLO_HZZ_4l_notau.deriv.DAOD_PHYSLITE.e8558_s4162_r15540_p6266


mc23_13p6TeV.601503.PhPy8EG_PDF4LHC21_ZH125J_Zincl_MINLO_HZZ_4l_notau.deriv.DAOD_PHYSLITE.e8558_s4159_r15530_p6266
mc23_13p6TeV.601503.PhPy8EG_PDF4LHC21_ZH125J_Zincl_MINLO_HZZ_4l_notau.deriv.DAOD_PHYSLITE.e8558_s4162_r15540_p6266
