mc20_13TeV:mc20_13TeV.412043.aMcAtNloPythia8EvtGen_A14NNPDF31_SM4topsNLO.deriv.DAOD_PHYSLITE.e7101_e5984_a899_r13144_r13146_p5855
mc20_13TeV:mc20_13TeV.412043.aMcAtNloPythia8EvtGen_A14NNPDF31_SM4topsNLO.deriv.DAOD_PHYSLITE.e7101_e5984_a899_r13145_r13146_p5855
mc20_13TeV:mc20_13TeV.412043.aMcAtNloPythia8EvtGen_A14NNPDF31_SM4topsNLO.deriv.DAOD_PHYSLITE.e7101_e5984_a899_r13167_r13146_p5855
